<?xml version="1.0" encoding="iso-8859-1" ?>
<!-- Generator: Adobe Illustrator 21.0.0, SVG Export Plug-In . SVG Version: 6.00 Build 0)  -->
<svg xmlns="http://www.w3.org/2000/svg" viewBox="0 0 64 64" width="100" height="100">
    <g id="automated">
        <path fill="#47b2a1" d="M59.06,44.925A29.508,29.508,0,0,0,62,32,29.931,29.931,0,0,0,51.73,9.41,3.959,3.959,0,0,0,52,8a3.989,3.989,0,0,0-6.739-2.9A30.019,30.019,0,0,0,32,2,29.508,29.508,0,0,0,19.075,4.94,9.995,9.995,0,1,0,4.94,19.075,29.508,29.508,0,0,0,2,32,29.931,29.931,0,0,0,12.27,54.59,3.959,3.959,0,0,0,12,56a3.989,3.989,0,0,0,6.739,2.9A30.019,30.019,0,0,0,32,62a29.508,29.508,0,0,0,12.925-2.94A9.995,9.995,0,1,0,59.06,44.925ZM48,6a2,2,0,1,1-2,2A2,2,0,0,1,48,6ZM4,12a8,8,0,1,1,8,8A8.009,8.009,0,0,1,4,12ZM16,58a2,2,0,1,1,2-2A2,2,0,0,1,16,58Zm16,2a27.594,27.594,0,0,1-12.2-2.807A3.963,3.963,0,0,0,20,56a4,4,0,0,0-4-4,3.962,3.962,0,0,0-2.563.955A27.941,27.941,0,0,1,4,32,27.535,27.535,0,0,1,6.539,20.367,9.988,9.988,0,0,0,20.367,6.539,27.922,27.922,0,0,1,44.2,6.807,3.963,3.963,0,0,0,44,8a4,4,0,0,0,4,4,3.962,3.962,0,0,0,2.563-.955A27.941,27.941,0,0,1,60,32a27.535,27.535,0,0,1-2.539,11.633A9.988,9.988,0,0,0,43.633,57.461,27.535,27.535,0,0,1,32,60Zm20,0a8,8,0,1,1,8-8A8.009,8.009,0,0,1,52,60Z"/>
        <path fill="#47b2a1" d="M32,12A20.022,20.022,0,0,1,51.863,29.741l-1.47-1.234-1.286,1.532,3.25,2.727a1,1,0,0,0,1.409-.123l2.727-3.25-1.532-1.286-1.115,1.33A22.01,22.01,0,0,0,23.6,11.659l.764,1.849A19.869,19.869,0,0,1,32,12Z"/>
        <path fill="#47b2a1" d="M32,52A20.012,20.012,0,0,1,13.5,24.381l-1.849-.762A22.012,22.012,0,0,0,32,54a22.242,22.242,0,0,0,4.142-.389l-.374-1.965A20.2,20.2,0,0,1,32,52Z"/>
        <path fill="#47b2a1" d="M37.732,51.167l.572,1.916c.687-.2,1.367-.445,2.022-.713l-.759-1.851C38.973,50.762,38.355,50.98,37.732,51.167Z"/>
        <path fill="#47b2a1" d="M19,41H45a3,3,0,0,0,3-3V26a3,3,0,0,0-3-3H19a3,3,0,0,0-3,3V38A3,3,0,0,0,19,41ZM18,26a1,1,0,0,1,1-1H45a1,1,0,0,1,1,1V38a1,1,0,0,1-1,1H19a1,1,0,0,1-1-1Z"/>
        <path fill="#47b2a1" d="M32,37a5,5,0,1,0-5-5A5.006,5.006,0,0,0,32,37Zm0-8a3,3,0,1,1-3,3A3,3,0,0,1,32,29Z"/>
        <path fill="#47b2a1" d="M22,29h2V27H21a1,1,0,0,0-1,1v3h2Z"/>
        <path fill="#47b2a1" d="M42,31h2V28a1,1,0,0,0-1-1H40v2h2Z"/>
        <path fill="#47b2a1" d="M21,37h3V35H22V33H20v3A1,1,0,0,0,21,37Z"/>
        <path fill="#47b2a1" d="M44,36V33H42v2H40v2h3A1,1,0,0,0,44,36Z"/>
        <path fill="#47b2a1" d="M13,15H11a1,1,0,0,1-1-1H8a3,3,0,0,0,3,3v1h2V17a3,3,0,0,0,0-6H11a1,1,0,0,1,0-2h2a1,1,0,0,1,1,1h2a3,3,0,0,0-3-3V6H11V7a3,3,0,0,0,0,6h2a1,1,0,0,1,0,2Z"/>
        <path fill="#47b2a1" d="M51,49h2a1,1,0,0,1,1,1h2a3,3,0,0,0-3-3V46H51v1a3,3,0,0,0,0,6h2a1,1,0,0,1,0,2H51a1,1,0,0,1-1-1H48a3,3,0,0,0,3,3v1h2V57a3,3,0,0,0,0-6H51a1,1,0,0,1,0-2Z"/>
    </g>
</svg>
